…
# check the result
league_tables %>% 
  filter(season == "2014/2015", name == "Netherlands Eredivisie") %>% 
  select(team_long_name, Pld, W, D, L, GF, GA, GD, Pts) %>% 
  arrange(desc(Pts))

## Adding missing grouping variables: `league_id`, `season`

## # A tibble: 36 x 11
## # Groups: league_id, season [1]
##    league_id season    team_long_name   Pld     W     D     L    GF    GA
##        <int> <chr>     <chr>          <int> <int> <int> <int> <int> <int>
##  1     13274 2014/2015 PSV               17    16     0     1    50    12
##  2     13274 2014/2015 PSV               17    13     1     3    42    19
##  3     13274 2014/2015 Ajax              17    12     3     2    37    11
##  4     13274 2014/2015 PEC Zwolle        17    11     4     2    40    15
##  5     13274 2014/2015 Vitesse           17     8     8     1    36    18
##  6     13274 2014/2015 Feyenoord         17    10     2     5    31    20
##  7     13274 2014/2015 Ajax              17     9     5     3    32    18
##  8     13274 2014/2015 AZ                17    10     2     5    33    29
##  9     13274 2014/2015 AZ                17     9     3     5    30    27
## 10     13274 2014/2015 Willem II         17     8     5     4    25    22
## # ... with 26 more rows, and 2 more variables: GD <int>, Pts <dbl>
…
